{
	"id": "6fa994a3-8ebd-4c21-a721-26e1843e6e8d",
	"name": "Petstore",
	"values": [
		{
			"key": "baseUrl",
			"value": "https://petstore.swagger.io/v2",
			"type": "default",
			"enabled": true
		},
		{
			"key": "finded_petId",
			"value": "",
			"type": "any",
			"enabled": true
		},
		{
			"key": "created_pet_id",
			"value": "",
			"type": "any",
			"enabled": true
		},
		{
			"key": "pet_name",
			"value": "",
			"type": "any",
			"enabled": true
		},
		{
			"key": "test_suite_pet_id",
			"value": "50",
			"type": "default",
			"enabled": true
		},
		{
			"key": "test_suite_created_pet_id",
			"value": "",
			"type": "any",
			"enabled": true
		},
		{
			"key": "test_suite_pet_name",
			"value": "Michou",
			"type": "default",
			"enabled": true
		},
		{
			"key": "test_suite_created_pet_name",
			"value": "",
			"type": "any",
			"enabled": true
		}
	],
	"_postman_variable_scope": "environment",
	"_postman_exported_at": "2023-09-27T11:40:21.582Z",
	"_postman_exported_using": "Postman/10.18.9"
}